"../../../Engine/Content/Animation/DefaultAnimCurveCompressionSettings.uasset" 0
"../../../Engine/Content/Functions/Engine_MaterialFunctions01/Opacity/CameraDepthFade.uasset" 1
"../../../Engine/Content/EngineMaterials/T_Default_Material_Grid_M.uasset" 2
"../../../Engine/Content/EngineMaterials/T_Default_Material_Grid_N.uasset" 3
"../../../Engine/Content/EngineMaterials/WorldGridMaterial.uasset" 4
"../../../Engine/Content/ArtTools/RenderToTexture/Meshes/S_1_Unit_Plane.uasset" 5
"../../../Engine/Content/EngineMaterials/DefaultMaterial.uasset" 6
"../../../Engine/Content/BasicShapes/Cone.uasset" 7
"../../../Engine/Content/BasicShapes/Cube.uasset" 8
"../../../Engine/Content/BasicShapes/Cylinder.uasset" 9
"../../../Engine/Content/EditorLandscapeResources/DataLayer.uasset" 10
"../../../Engine/Content/EditorMaterials/MAT_Groups_Toggle.uasset" 11
"../../../Engine/Content/EditorMaterials/MAT_Groups_Visibility.uasset" 12
"../../../Engine/Content/EditorMaterials/PreviewShadowIndicator.uasset" 13
"../../../Engine/Content/EditorMaterials/PreviewShadowIndicatorMaterial.uasset" 14
"../../../Engine/Content/EditorMaterials/MatineeGroups/MAT_ColorTrack.uasset" 15
"../../../Engine/Content/EditorMaterials/MatineeGroups/MAT_Groups_Anim.uasset" 16
"../../../Engine/Content/EditorMaterials/MatineeGroups/MAT_Groups_AudioMaster.uasset" 17
"../../../Engine/Content/EditorMaterials/MatineeGroups/MAT_Groups_Director.uasset" 18
"../../../Engine/Content/EditorMaterials/MatineeGroups/MAT_Groups_Event.uasset" 19
"../../../Engine/Content/EditorMaterials/MatineeGroups/MAT_Groups_Fade.uasset" 20
"../../../Engine/Content/EditorMaterials/MatineeGroups/MAT_Groups_Float.uasset" 21
"../../../Engine/Content/EditorMaterials/MatineeGroups/MAT_Groups_Move.uasset" 22
"../../../Engine/Content/EditorMaterials/MatineeGroups/MAT_Groups_Slomo.uasset" 23
"../../../Engine/Content/EditorMaterials/MatineeGroups/MAT_Groups_Sound.uasset" 24
"../../../Engine/Content/EditorMaterials/MatineeGroups/MAT_Groups_Vector.uasset" 25
"../../../Engine/Content/EditorMaterials/ParticleSystems/PSysThumbnail_NoImage.uasset" 26
"../../../Engine/Content/EditorMaterials/ParticleSystems/PSysThumbnail_OOD.uasset" 27
"../../../Engine/Content/EditorMaterials/Camera/CineMat.uasset" 28
"../../../Engine/Content/EditorMaterials/Camera/MI_CineMat_Rig.uasset" 29
"../../../Engine/Content/EditorMeshes/Camera/SM_CraneRig_Arm.uasset" 30
"../../../Engine/Content/EditorMeshes/Camera/SM_CraneRig_Base.uasset" 31
"../../../Engine/Content/EditorMeshes/Camera/SM_CraneRig_Body.uasset" 32
"../../../Engine/Content/EditorMeshes/Camera/SM_CraneRig_Mount.uasset" 33
"../../../Engine/Content/EditorMeshes/Camera/SM_RailRig_Mount.uasset" 34
"../../../Engine/Content/EditorMeshes/Camera/SM_RailRig_Track.uasset" 35
"../../../Engine/Content/EditorResources/BSPVertex.uasset" 36
"../../../Engine/Content/EditorResources/EmptyActor.uasset" 37
"../../../Engine/Content/EditorResources/S_Actor.uasset" 38
"../../../Engine/Content/EditorResources/S_Note.uasset" 39
"../../../Engine/Content/EditorResources/S_Solver.uasset" 40
"../../../Engine/Content/EditorResources/S_Trigger.uasset" 41
"../../../Engine/Content/EditorResources/LightIcons/S_LightError.uasset" 42
"../../../Engine/Content/EditorResources/SequenceRecorder/Countdown.uasset" 43
"../../../Engine/Content/EditorResources/SequenceRecorder/RecordingIndicator.uasset" 44
"../../../Engine/Content/EditorSounds/Notifications/CompileFailed.uasset" 45
"../../../Engine/Content/EditorSounds/Notifications/CompileFailed_Cue.uasset" 46
"../../../Engine/Content/EditorSounds/Notifications/CompileSuccess.uasset" 47
"../../../Engine/Content/EditorSounds/Notifications/CompileStart_Cue.uasset" 48
"../../../Engine/Content/EditorSounds/Notifications/CompileSuccess_Cue.uasset" 49
"../../../Engine/Content/EngineDamageTypes/DmgTypeBP_Environmental.uasset" 50
"../../../Engine/Content/EngineDebugMaterials/DebugEditorMaterial.uasset" 51
"../../../Engine/Content/EngineDebugMaterials/DebugMeshMaterial.uasset" 52
"../../../Engine/Content/EngineDebugMaterials/M_SimpleUnlitTranslucent.uasset" 53
"../../../Engine/Content/Functions/Engine_MaterialFunctions02/Utility/CameraDirectionVector.uasset" 54
"../../../Engine/Content/EngineDebugMaterials/VolumeToRender.uasset" 55
"../../../Engine/Content/EngineDebugMaterials/M_VolumeRenderSphereTracePP.uasset" 56
"../../../Engine/Content/EngineDebugMaterials/WireframeMaterial.uasset" 57
"../../../Engine/Content/EngineFonts/Faces/DroidSansFallback.uasset" 58
"../../../Engine/Content/EngineFonts/Faces/RobotoBold.uasset" 59
"../../../Engine/Content/EngineFonts/Faces/RobotoBoldItalic.uasset" 60
"../../../Engine/Content/EngineFonts/Faces/RobotoItalic.uasset" 61
"../../../Engine/Content/EngineFonts/Faces/RobotoLight.uasset" 62
"../../../Engine/Content/EngineFonts/Faces/RobotoRegular.uasset" 63
"../../../Engine/Content/EngineFonts/Roboto.uasset" 64
"../../../Engine/Content/EngineMaterials/BaseFlattenDiffuseMap.uasset" 65
"../../../Engine/Content/EngineMaterials/BaseFlattenEmissiveMap.uasset" 66
"../../../Engine/Content/EngineMaterials/BaseFlattenGrayscaleMap.uasset" 67
"../../../Engine/Content/EngineMaterials/BaseFlattenNormalMap.uasset" 68
"../../../Engine/Content/EngineMaterials/BaseFlattenMaterial.uasset" 69
"../../../Engine/Content/EngineMaterials/BlueNoise.uasset" 70
"../../../Engine/Content/EngineMaterials/DefaultBloomKernel.uasset" 71
"../../../Engine/Content/EngineMaterials/DefaultBokeh.uasset" 72
"../../../Engine/Content/EngineMaterials/DefaultDiffuse.uasset" 73
"../../../Engine/Content/EngineMaterials/DefaultDeferredDecalMaterial.uasset" 74
"../../../Engine/Content/EngineMaterials/DefaultLightFunctionMaterial.uasset" 75
"../../../Engine/Content/EngineMaterials/DefaultPhysicalMaterial.uasset" 76
"../../../Engine/Content/Functions/Engine_MaterialFunctions02/Utility/BreakOutFloat2Components.uasset" 77
"../../../Engine/Content/EngineMaterials/DefaultPostProcessMaterial.uasset" 78
"../../../Engine/Content/EngineFonts/RobotoDistanceField.uasset" 79
"../../../Engine/Content/EngineMaterials/DefaultTextMaterialOpaque.uasset" 80
"../../../Engine/Content/EngineMaterials/DefaultWhiteGrid.uasset" 81
"../../../Engine/Content/EngineMaterials/DefaultWhiteGrid_Low.uasset" 82
"../../../Engine/Content/EngineMaterials/EmissiveMeshMaterial.uasset" 83
"../../../Engine/Content/EngineMaterials/GizmoMaterial.uasset" 84
"../../../Engine/Content/EngineMaterials/Good64x64TilingNoiseHighFreq.uasset" 85
"../../../Engine/Content/EngineMaterials/MiniFont.uasset" 86
"../../../Engine/Content/EngineMaterials/InvalidLightmapSettings.uasset" 87
"../../../Engine/Content/EngineMaterials/M_InvalidLightmapSettings.uasset" 88
"../../../Engine/Content/Functions/Engine_MaterialFunctions02/WorldPositionOffset/CameraOffset.uasset" 89
"../../../Engine/Content/EngineMaterials/PhAT_JointLimitMaterial.uasset" 90
"../../../Engine/Content/EngineMaterials/PreintegratedSkinBRDF.uasset" 91
"../../../Engine/Content/EngineMaterials/RemoveSurfaceMaterial.uasset" 92
"../../../Engine/Content/EngineResources/WhiteSquareTexture.uasset" 93
"../../../Engine/Content/EngineMaterials/Widget3DPassThrough.uasset" 94
"../../../Engine/Content/EngineMaterials/Widget3DPassThrough_Masked.uasset" 95
"../../../Engine/Content/EngineMaterials/Widget3DPassThrough_Opaque.uasset" 96
"../../../Engine/Content/EngineMaterials/Widget3DPassThrough_Masked_OneSided.uasset" 97
"../../../Engine/Content/EngineMaterials/Widget3DPassThrough_Opaque_OneSided.uasset" 98
"../../../Engine/Content/EngineMaterials/Widget3DPassThrough_Translucent.uasset" 99
"../../../Engine/Content/EngineMaterials/Widget3DPassThrough_Translucent_OneSided.uasset" 100
"../../../Engine/Content/EngineMeshes/Cylinder.uasset" 101
"../../../Engine/Content/EngineMeshes/Sphere.uasset" 102
"../../../Engine/Content/EngineResources/Black.uasset" 103
"../../../Engine/Content/EngineResources/DefaultTexture.uasset" 104
"../../../Engine/Content/EngineResources/DefaultTextureCube.uasset" 105
"../../../Engine/Content/EngineResources/DefaultVolumeTexture2D.uasset" 106
"../../../Engine/Content/EngineResources/DefaultVolumeTexture.uasset" 107
"../../../Engine/Content/EngineResources/GradientTexture0.uasset" 108
"../../../Engine/Content/EngineSounds/Master.uasset" 109
"../../../Engine/Content/Functions/Engine_MaterialFunctions01/Shading/ConvertFromDiffSpec.uasset" 110
"../../../Engine/Content/Functions/Engine_MaterialFunctions01/Shading/PowerToRoughness.uasset" 111
"../../../Engine/Content/Maps/Templates/Thumbnails/Default.uasset" 112
"../../../Engine/Content/Maps/Templates/Thumbnails/TimeOfDay.uasset" 113
"../../../Engine/Content/Maps/Templates/Thumbnails/VR-Basic.uasset" 114
"../../../Engine/Content/MobileResources/T_MobileControls_texture.uasset" 115
"../../../Engine/Content/MobileResources/T_MobileMenu2.uasset" 116
"../../../Engine/Content/MobileResources/HUD/AnalogHat.uasset" 117
"../../../Engine/Content/MobileResources/HUD/VirtualJoystick_Background.uasset" 118
"../../../Engine/Content/MobileResources/HUD/VirtualJoystick_Thumb.uasset" 119
"../../../Engine/Content/MobileResources/HUD/DefaultVirtualJoysticks.uasset" 120
"../../../Engine/Content/MobileResources/HUD/LeftVirtualJoystickOnly.uasset" 121
"../../../Engine/Content/MobileResources/HUD/MobileHUDButton1_off.uasset" 122
"../../../Engine/Content/MobileResources/HUD/MobileHUDButton1_on.uasset" 123
"../../../Engine/Content/MobileResources/HUD/MobileHUDButton2_off.uasset" 124
"../../../Engine/Content/MobileResources/HUD/MobileHUDButton2_on.uasset" 125
"../../../Engine/Content/MobileResources/HUD/MobileHUDButton3.uasset" 126
"../../../Engine/Content/MobileResources/HUD/MobileHUDButtonFire.uasset" 127
"../../../Engine/Content/MobileResources/HUD/MobileHUDDirectionPad.uasset" 128
"../../../Engine/Content/MobileResources/HUD/MobileHUDDirectionPad2.uasset" 129
"../../../Engine/Content/MobileResources/HUD/MobileHUDDirectionPad3.uasset" 130
"../../../Engine/Content/MobileResources/HUD/MobileHUDDirectionStick.uasset" 131
"../../../Engine/Content/MobileResources/HUD/T_Castle_ThumbstickInner.uasset" 132
"../../../Engine/Content/MobileResources/HUD/T_Castle_ThumbstickOutter.uasset" 133
"../../../Engine/Content/Tutorial/ContentIntroCurve.uasset" 134
"../../../Engine/Content/Tutorial/Basics/LevelEditorAttract.uasset" 135
"../../../Engine/Content/VREditor/LaserPointer/VR_LaserPower_01.uasset" 136
"../../../Engine/Content/VREditor/TransformGizmo/TransformGizmoMaterial.uasset" 137
"../../../Engine/Content/VREditor/TransformGizmo/TranslucentTransformGizmoMaterial.uasset" 138
"../../../Engine/Content/VREditor/TransformGizmo/BoundingBoxCorner.uasset" 139
"../../../Engine/Content/VREditor/TransformGizmo/BoundingBoxEdge.uasset" 140
"../../../Engine/Content/VREditor/TransformGizmo/PlaneTranslationHandle.uasset" 141
"../../../Engine/Content/VREditor/TransformGizmo/Main.uasset" 142
"../../../Engine/Content/VREditor/TransformGizmo/Xray.uasset" 143
"../../../Engine/Content/VREditor/TransformGizmo/SM_Sequencer_Key.uasset" 144
"../../../Engine/Content/VREditor/TransformGizmo/SM_Sequencer_Node.uasset" 145
"../../Plugins/2D/Paper2D/Content/PlaceholderTextures/DummySpriteTexture.uasset" 146
"../../Plugins/2D/Paper2D/Content/DummySprite.uasset" 147
"../../Plugins/2D/Paper2D/Content/DefaultPaperTerrainMaterial.uasset" 148
"../../Plugins/2D/Paper2D/Content/DefaultSpriteMaterial.uasset" 149
"../../Plugins/2D/Paper2D/Content/MaskedUnlitSpriteMaterial.uasset" 150
"../../Plugins/2D/Paper2D/Content/OpaqueUnlitSpriteMaterial.uasset" 151
"../../Plugins/FX/Niagara/Content/Enums/ENiagaraBooleanLogicOps.uasset" 152
"../../Plugins/FX/Niagara/Content/Enums/ENiagaraCoordinateSpace.uasset" 153
"../../Plugins/FX/Niagara/Content/Enums/ENiagaraExpansionMode.uasset" 154
"../../Plugins/FX/Niagara/Content/Enums/ENiagaraOrientationAxis.uasset" 155
"../../Plugins/FX/Niagara/Content/Enums/ENiagaraRandomnessMode.uasset" 156
"../../../Engine/Content/Functions/Engine_MaterialFunctions02/Utility/BreakOutFloat4Components.uasset" 157
"../../../Engine/Content/Functions/Engine_MaterialFunctions02/Utility/MakeFloat2.uasset" 158
"../../../Engine/Content/Functions/Engine_MaterialFunctions02/Utility/MakeFloat3.uasset" 159
"../../Plugins/Runtime/Oculus/OculusVR/Content/Materials/OculusMR_ChromaKey.uasset" 160
"../../Plugins/Runtime/Oculus/OculusVR/Content/Materials/OculusMR_ChromaKey_Lit.uasset" 161
"../../Plugins/Runtime/Oculus/OculusVR/Content/Materials/OculusMR_OpaqueColoredMaterial.uasset" 162
"../../Plugins/Runtime/Oculus/OculusVR/Content/Materials/OculusMR_WhiteMaterial.uasset" 163
"../../../Engine/Content/EditorBlueprintResources/StandardMacros.uasset" 164
"../../../../../../Unreal Projects/FantasyVillageProject/FantasyVillageDev/Content/Buildings/BuildArea.uasset" 165
"../../../Engine/Content/Functions/Engine_MaterialFunctions01/Texturing/FlattenNormal.uasset" 166
"../../../../../../Unreal Projects/FantasyVillageProject/FantasyVillageDev/Content/beffio/Medieval_Kingdom/Content/Textures/Banners_texture/T_Banners_AO.uasset" 167
"../../../../../../Unreal Projects/FantasyVillageProject/FantasyVillageDev/Content/beffio/Medieval_Kingdom/Content/Textures/Banners_texture/T_Banners_BC.uasset" 168
"../../../../../../Unreal Projects/FantasyVillageProject/FantasyVillageDev/Content/beffio/Medieval_Kingdom/Content/Textures/Banners_texture/T_Banners_MT.uasset" 169
"../../../../../../Unreal Projects/FantasyVillageProject/FantasyVillageDev/Content/beffio/Medieval_Kingdom/Content/Textures/Banners_texture/T_Banners_N.uasset" 170
"../../../../../../Unreal Projects/FantasyVillageProject/FantasyVillageDev/Content/beffio/Medieval_Kingdom/Content/Textures/Buildings/Building_1/T_House_1_E.uasset" 171
"../../../../../../Unreal Projects/FantasyVillageProject/FantasyVillageDev/Content/beffio/Medieval_Kingdom/Content/Materials/Master_Materials/M_BaseShader.uasset" 172
"../../../../../../Unreal Projects/FantasyVillageProject/FantasyVillageDev/Content/beffio/Medieval_Kingdom/Content/Textures/Buildings/Building_1/T_House_1_AO.uasset" 173
"../../../../../../Unreal Projects/FantasyVillageProject/FantasyVillageDev/Content/beffio/Medieval_Kingdom/Content/Textures/Buildings/Building_1/T_House_1_BC.uasset" 174
"../../../../../../Unreal Projects/FantasyVillageProject/FantasyVillageDev/Content/beffio/Medieval_Kingdom/Content/Textures/Buildings/Building_1/T_House_1_MT.uasset" 175
"../../../../../../Unreal Projects/FantasyVillageProject/FantasyVillageDev/Content/beffio/Medieval_Kingdom/Content/Textures/Buildings/Building_1/T_House_1_N.uasset" 176
"../../../../../../Unreal Projects/FantasyVillageProject/FantasyVillageDev/Content/beffio/Medieval_Kingdom/Content/Materials/Materials_Instances/Buildings/MI_Building_1.uasset" 177
"../../../../../../Unreal Projects/FantasyVillageProject/FantasyVillageDev/Content/beffio/Medieval_Kingdom/Content/Models/Buildings/Building_1/SM_Building_1.uasset" 178
"../../../../../../Unreal Projects/FantasyVillageProject/FantasyVillageDev/Content/CraftResourcesIcons/Textures/Tex_recipes_09.uasset" 179
"../../../../../../Unreal Projects/FantasyVillageProject/FantasyVillageDev/Content/CraftResourcesIcons/Textures/Tex_container_05_b.uasset" 180
"../../../Engine/Content/EngineMaterials/BlendFunc_DefBase.uasset" 181
"../../../Engine/Content/EngineMaterials/BlendFunc_DefBlend.uasset" 182
"../../../Engine/Content/Functions/Engine_MaterialFunctions03/Blends/Blend_Overlay.uasset" 183
"../../../../../../Unreal Projects/FantasyVillageProject/FantasyVillageDev/Content/Fantasy_Village/textures/buildings_textures/house_a/T_house_a_BaseColor.uasset" 184
"../../../../../../Unreal Projects/FantasyVillageProject/FantasyVillageDev/Content/Fantasy_Village/textures/buildings_textures/house_a/T_house_a_Mask.uasset" 185
"../../../../../../Unreal Projects/FantasyVillageProject/FantasyVillageDev/Content/Fantasy_Village/textures/buildings_textures/house_a/T_house_a_Normal.uasset" 186
"../../../../../../Unreal Projects/FantasyVillageProject/FantasyVillageDev/Content/Fantasy_Village/textures/buildings_textures/house_a/T_house_a_Roughness.uasset" 187
"../../../../../../Unreal Projects/FantasyVillageProject/FantasyVillageDev/Content/Fantasy_Village/materials/buildings_materials/M_house.uasset" 188
"../../../../../../Unreal Projects/FantasyVillageProject/FantasyVillageDev/Content/Fantasy_Village/textures/buildings_textures/house_d/T_house_d_BaseColor.uasset" 189
"../../../../../../Unreal Projects/FantasyVillageProject/FantasyVillageDev/Content/Fantasy_Village/textures/buildings_textures/house_d/T_house_d_Mask.uasset" 190
"../../../../../../Unreal Projects/FantasyVillageProject/FantasyVillageDev/Content/Fantasy_Village/textures/buildings_textures/house_d/T_house_d_Normal.uasset" 191
"../../../../../../Unreal Projects/FantasyVillageProject/FantasyVillageDev/Content/Fantasy_Village/textures/buildings_textures/house_d/T_house_d_Roughness.uasset" 192
"../../../../../../Unreal Projects/FantasyVillageProject/FantasyVillageDev/Content/Fantasy_Village/materials/buildings_materials/MI_house_d_Inst.uasset" 193
"../../../../../../Unreal Projects/FantasyVillageProject/FantasyVillageDev/Content/Fantasy_Village/meshes/buildings/SM_house_d.uasset" 194
"../../../../../../Unreal Projects/FantasyVillageProject/FantasyVillageDev/Content/Citizens/BehaviorTrees/CitizenBlackboard.uasset" 195
"../../../../../../Unreal Projects/FantasyVillageProject/FantasyVillageDev/Content/Citizens/BehaviorTrees/GetRandomBuilding.uasset" 196
"../../../../../../Unreal Projects/FantasyVillageProject/FantasyVillageDev/Content/Citizens/BehaviorTrees/IdleWalkingRoutine.uasset" 197
"../../../Engine/Content/Animation/DefaultAnimBoneCompressionSettings.uasset" 198
"../../../../../../Unreal Projects/FantasyVillageProject/FantasyVillageDev/Content/Citizens/Mesh/ybot_Skeleton.uasset" 199
"../../../../../../Unreal Projects/FantasyVillageProject/FantasyVillageDev/Content/Citizens/Animations/left_turn.uasset" 200
"../../../../../../Unreal Projects/FantasyVillageProject/FantasyVillageDev/Content/Citizens/Animations/right_turn.uasset" 201
"../../../../../../Unreal Projects/FantasyVillageProject/FantasyVillageDev/Content/CityAnimations_pack2/Mannequin/Character/Mesh/UE4_Mannequin_Skeleton.uasset" 202
"../../../../../../Unreal Projects/FantasyVillageProject/FantasyVillageDev/Content/CityAnimations_pack2/Animation/Choping_wood.uasset" 203
"../../../../../../Unreal Projects/FantasyVillageProject/FantasyVillageDev/Content/CityAnimations_pack2/Animation/Choping_wood_in.uasset" 204
"../../../../../../Unreal Projects/FantasyVillageProject/FantasyVillageDev/Content/CityAnimations_pack2/Animation/Choping_wood_out.uasset" 205
"../../../../../../Unreal Projects/FantasyVillageProject/FantasyVillageDev/Content/CityAnimations_pack2/Animation/Stone_mining.uasset" 206
"../../../../../../Unreal Projects/FantasyVillageProject/FantasyVillageDev/Content/CityAnimations_pack2/Animation/Stone_mining_in.uasset" 207
"../../../../../../Unreal Projects/FantasyVillageProject/FantasyVillageDev/Content/CityAnimations_pack2/Animation/Stone_mining_out.uasset" 208
"../../../../../../Unreal Projects/FantasyVillageProject/FantasyVillageDev/Content/Citizens/Animations/ThirdPersonRun.uasset" 209
"../../../../../../Unreal Projects/FantasyVillageProject/FantasyVillageDev/Content/Citizens/Animations/ThirdPersonWalk.uasset" 210
"../../../../../../Unreal Projects/FantasyVillageProject/FantasyVillageDev/Content/CityAnimations_pack2/Animation/Waiting_2.uasset" 211
"../../../../../../Unreal Projects/FantasyVillageProject/FantasyVillageDev/Content/Citizens/Animations/WalkingBlendSpace2.uasset" 212
"../../../../../../Unreal Projects/FantasyVillageProject/FantasyVillageDev/Content/Citizens/Occupation.uasset" 213
"../../../../../../Unreal Projects/FantasyVillageProject/FantasyVillageDev/Content/Citizens/Animations/CitizenAnimationBP.uasset" 214
"../../../../../../Unreal Projects/FantasyVillageProject/FantasyVillageDev/Content/Citizens/Animations/jump.uasset" 215
"../../../../../../Unreal Projects/FantasyVillageProject/FantasyVillageDev/Content/Buildings/Material/DefaultLevel1.uasset" 216
"../../../../../../Unreal Projects/FantasyVillageProject/FantasyVillageDev/Content/Buildings/Material/DefaultLevel1Material.uasset" 217
"../../../../../../Unreal Projects/FantasyVillageProject/FantasyVillageDev/Content/Buildings/Mesh/DefaultLevel1Mesh.uasset" 218
"../../../../../../Unreal Projects/FantasyVillageProject/FantasyVillageDev/Content/RawMaterials/DefaultResource.uasset" 219
"../../../../../../Unreal Projects/FantasyVillageProject/FantasyVillageDev/Content/beffio/Medieval_Kingdom/Content/Textures/Stones/Stone_1/T_Stone_1_AO.uasset" 220
"../../../../../../Unreal Projects/FantasyVillageProject/FantasyVillageDev/Content/beffio/Medieval_Kingdom/Content/Textures/Stones/Stone_1/T_Stone_1_BC.uasset" 221
"../../../../../../Unreal Projects/FantasyVillageProject/FantasyVillageDev/Content/beffio/Medieval_Kingdom/Content/Textures/Stones/Stone_1/T_Stone_1_MT.uasset" 222
"../../../../../../Unreal Projects/FantasyVillageProject/FantasyVillageDev/Content/beffio/Medieval_Kingdom/Content/Textures/Stones/Stone_1/T_Stone_1_N.uasset" 223
"../../../../../../Unreal Projects/FantasyVillageProject/FantasyVillageDev/Content/beffio/Medieval_Kingdom/Content/Materials/Materials_Instances/Stones/MI_Stone_01.uasset" 224
"../../../../../../Unreal Projects/FantasyVillageProject/FantasyVillageDev/Content/beffio/Medieval_Kingdom/Content/Models/Stones/SM_Stone_1.uasset" 225
"../../../../../../Unreal Projects/FantasyVillageProject/FantasyVillageDev/Content/beffio/Medieval_Kingdom/Content/Textures/Stones/Stone_10/T_Stone_10_AO.uasset" 226
"../../../../../../Unreal Projects/FantasyVillageProject/FantasyVillageDev/Content/beffio/Medieval_Kingdom/Content/Textures/Stones/Stone_10/T_Stone_10_BC.uasset" 227
"../../../../../../Unreal Projects/FantasyVillageProject/FantasyVillageDev/Content/beffio/Medieval_Kingdom/Content/Textures/Stones/Stone_10/T_Stone_10_MT.uasset" 228
"../../../../../../Unreal Projects/FantasyVillageProject/FantasyVillageDev/Content/beffio/Medieval_Kingdom/Content/Textures/Stones/Stone_10/T_Stone_10_N.uasset" 229
"../../../../../../Unreal Projects/FantasyVillageProject/FantasyVillageDev/Content/beffio/Medieval_Kingdom/Content/Materials/Materials_Instances/Stones/MI_Stone_10.uasset" 230
"../../../../../../Unreal Projects/FantasyVillageProject/FantasyVillageDev/Content/beffio/Medieval_Kingdom/Content/Models/Stones/SM_Stone_10.uasset" 231
"../../../../../../Unreal Projects/FantasyVillageProject/FantasyVillageDev/Content/beffio/Medieval_Kingdom/Content/Textures/Stones/Stone_7/T_Stone_7_AO.uasset" 232
"../../../../../../Unreal Projects/FantasyVillageProject/FantasyVillageDev/Content/beffio/Medieval_Kingdom/Content/Textures/Stones/Stone_7/T_Stone_7_BC.uasset" 233
"../../../../../../Unreal Projects/FantasyVillageProject/FantasyVillageDev/Content/beffio/Medieval_Kingdom/Content/Textures/Stones/Stone_7/T_Stone_7_MT.uasset" 234
"../../../../../../Unreal Projects/FantasyVillageProject/FantasyVillageDev/Content/beffio/Medieval_Kingdom/Content/Textures/Stones/Stone_7/T_Stone_7_N.uasset" 235
"../../../../../../Unreal Projects/FantasyVillageProject/FantasyVillageDev/Content/beffio/Medieval_Kingdom/Content/Materials/Materials_Instances/Stones/MI_Stone_07.uasset" 236
"../../../../../../Unreal Projects/FantasyVillageProject/FantasyVillageDev/Content/beffio/Medieval_Kingdom/Content/Models/Stones/SM_Stone_7.uasset" 237
"../../../../../../Unreal Projects/FantasyVillageProject/FantasyVillageDev/Content/RawMaterials/Rock.uasset" 238
"../../../Engine/Content/Functions/Engine_MaterialFunctions02/HueShift.uasset" 239
"../../../../../../Unreal Projects/FantasyVillageProject/FantasyVillageDev/Content/CartoonRtsFoliage/Textures/Foliages/T_Foliage_GroundMask_02.uasset" 240
"../../../../../../Unreal Projects/FantasyVillageProject/FantasyVillageDev/Content/CartoonRtsFoliage/Materials/Trees/Wind_Effect_Parameter.uasset" 241
"../../../../../../Unreal Projects/FantasyVillageProject/FantasyVillageDev/Content/CartoonRtsFoliage/Textures/Trees/PineTree/T_PineTrees_D.uasset" 242
"../../../../../../Unreal Projects/FantasyVillageProject/FantasyVillageDev/Content/CartoonRtsFoliage/Textures/Trees/PineTree/T_PineTrees_R.uasset" 243
"../../../../../../Unreal Projects/FantasyVillageProject/FantasyVillageDev/Content/CartoonRtsFoliage/Textures/Trees/PineTree/T_PineTrees_S.uasset" 244
"../../../../../../Unreal Projects/FantasyVillageProject/FantasyVillageDev/Content/CartoonRtsFoliage/Materials/Trees/M_PineTree.uasset" 245
"../../../../../../Unreal Projects/FantasyVillageProject/FantasyVillageDev/Content/CartoonRtsFoliage/Materials/Trees/M_PineTree_Inst.uasset" 246
"../../../../../../Unreal Projects/FantasyVillageProject/FantasyVillageDev/Content/CartoonRtsFoliage/Meshes/Trees/PineTree/Static/SM_PineTree01.uasset" 247
"../../../../../../Unreal Projects/FantasyVillageProject/FantasyVillageDev/Content/RawMaterials/Tree.uasset" 248
"../../../../../../Unreal Projects/FantasyVillageProject/FantasyVillageDev/Content/Citizens/Attributes.uasset" 249
"../../../../../../Unreal Projects/FantasyVillageProject/FantasyVillageDev/Content/Buildings/StatExperience.uasset" 250
"../../../../../../Unreal Projects/FantasyVillageProject/FantasyVillageDev/Content/Citizens/CitizenStat.uasset" 251
"../../../../../../Unreal Projects/FantasyVillageProject/FantasyVillageDev/Content/RawMaterials/Resources.uasset" 252
"../../../../../../Unreal Projects/FantasyVillageProject/FantasyVillageDev/Content/Citizens/JobDetails.uasset" 253
"../../../Engine/Content/Functions/Engine_MaterialFunctions02/Utility/BlendAngleCorrectedNormals.uasset" 254
"../../../Engine/Content/Functions/MaterialLayerFunctions/MatLayerBlend_NormalBlend.uasset" 255
"../../../Engine/Content/Functions/MaterialLayerFunctions/MatLayerBlend_Simple.uasset" 256
"../../../../../../Unreal Projects/FantasyVillageProject/FantasyVillageDev/Content/CityAnimations_pack2/Mannequin/Character/Materials/MaterialLayers/T_ML_Rubber_Blue_01_D.uasset" 257
"../../../../../../Unreal Projects/FantasyVillageProject/FantasyVillageDev/Content/CityAnimations_pack2/Mannequin/Character/Materials/MaterialLayers/T_ML_Rubber_Blue_01_N.uasset" 258
"../../../../../../Unreal Projects/FantasyVillageProject/FantasyVillageDev/Content/CityAnimations_pack2/Mannequin/Character/Materials/MaterialLayers/ML_GlossyBlack_Latex_UE4.uasset" 259
"../../../../../../Unreal Projects/FantasyVillageProject/FantasyVillageDev/Content/CityAnimations_pack2/Mannequin/Character/Materials/MaterialLayers/ML_Plastic_Shiny_Beige.uasset" 260
"../../../../../../Unreal Projects/FantasyVillageProject/FantasyVillageDev/Content/CityAnimations_pack2/Mannequin/Character/Textures/UE4_LOGO_CARD.uasset" 261
"../../../../../../Unreal Projects/FantasyVillageProject/FantasyVillageDev/Content/CityAnimations_pack2/Mannequin/Character/Materials/MaterialLayers/ML_Plastic_Shiny_Beige_LOGO.uasset" 262
"../../../../../../Unreal Projects/FantasyVillageProject/FantasyVillageDev/Content/CityAnimations_pack2/Mannequin/Character/Materials/MaterialLayers/T_ML_Aluminum01.uasset" 263
"../../../../../../Unreal Projects/FantasyVillageProject/FantasyVillageDev/Content/CityAnimations_pack2/Mannequin/Character/Materials/MaterialLayers/T_ML_Aluminum01_N.uasset" 264
"../../../../../../Unreal Projects/FantasyVillageProject/FantasyVillageDev/Content/CityAnimations_pack2/Mannequin/Character/Materials/MaterialLayers/ML_SoftMetal_UE4.uasset" 265
"../../../../../../Unreal Projects/FantasyVillageProject/FantasyVillageDev/Content/CityAnimations_pack2/Mannequin/Character/Textures/UE4_Mannequin__normals.uasset" 266
"../../../../../../Unreal Projects/FantasyVillageProject/FantasyVillageDev/Content/CityAnimations_pack2/Mannequin/Character/Textures/UE4_Mannequin_MAT_MASKA.uasset" 267
"../../../../../../Unreal Projects/FantasyVillageProject/FantasyVillageDev/Content/CityAnimations_pack2/Mannequin/Character/Materials/M_UE4Man_Body.uasset" 268
"../../../../../../Unreal Projects/FantasyVillageProject/FantasyVillageDev/Content/CityAnimations_pack2/Mannequin/Character/Textures/UE4Man_Logo_N.uasset" 269
"../../../../../../Unreal Projects/FantasyVillageProject/FantasyVillageDev/Content/CityAnimations_pack2/Mannequin/Character/Materials/M_UE4Man_ChestLogo.uasset" 270
"../../../../../../Unreal Projects/FantasyVillageProject/FantasyVillageDev/Content/CityAnimations_pack2/Mannequin/Character/Mesh/SK_Mannequin_PhysicsAsset.uasset" 271
"../../../../../../Unreal Projects/FantasyVillageProject/FantasyVillageDev/Content/CityAnimations_pack2/Mannequin/Character/Mesh/SK_Mannequin.uasset" 272
"../../../../../../Unreal Projects/FantasyVillageProject/FantasyVillageDev/Content/CraftResourcesIcons/Textures/Tex_gemstone_03_b.uasset" 273
"../../../../../../Unreal Projects/FantasyVillageProject/FantasyVillageDev/Content/Citizens/DefaultCitizen.uasset" 274
"../../../../../../Unreal Projects/FantasyVillageProject/FantasyVillageDev/Content/RawMaterials/ResourceData.uasset" 275
"../../../../../../Unreal Projects/FantasyVillageProject/FantasyVillageDev/Content/Citizens/BehaviorTrees/CheckIfStorageIsFull.uasset" 276
"../../../../../../Unreal Projects/FantasyVillageProject/FantasyVillageDev/Content/Citizens/BehaviorTrees/CheckIfWorkHours.uasset" 277
"../../../../../../Unreal Projects/FantasyVillageProject/FantasyVillageDev/Content/Citizens/BehaviorTrees/GetClosestBuildingOfClass.uasset" 278
"../../../../../../Unreal Projects/FantasyVillageProject/FantasyVillageDev/Content/Citizens/BehaviorTrees/GetClosestResourceOfClass.uasset" 279
"../../../../../../Unreal Projects/FantasyVillageProject/FantasyVillageDev/Content/Citizens/BehaviorTrees/StartWorking.uasset" 280
"../../../../../../Unreal Projects/FantasyVillageProject/FantasyVillageDev/Content/Citizens/BehaviorTrees/TargetStorage.uasset" 281
"../../../../../../Unreal Projects/FantasyVillageProject/FantasyVillageDev/Content/Citizens/BehaviorTrees/TurnTowardsLocation.uasset" 282
"../../../../../../Unreal Projects/FantasyVillageProject/FantasyVillageDev/Content/Citizens/BehaviorTrees/WaitForWorkToFinish.uasset" 283
"../../../../../../Unreal Projects/FantasyVillageProject/FantasyVillageDev/Content/Citizens/BehaviorTrees/CollectResourceRoutine.uasset" 284
"../../../../../../Unreal Projects/FantasyVillageProject/FantasyVillageDev/Content/Citizens/BehaviorTrees/GetWorkplaceLocation.uasset" 285
"../../../../../../Unreal Projects/FantasyVillageProject/FantasyVillageDev/Content/Citizens/BehaviorTrees/HideCitizen.uasset" 286
"../../../../../../Unreal Projects/FantasyVillageProject/FantasyVillageDev/Content/Citizens/BehaviorTrees/UnHideCitizen.uasset" 287
"../../../../../../Unreal Projects/FantasyVillageProject/FantasyVillageDev/Content/Citizens/BehaviorTrees/CollectResourceRoutineMinerSpecific.uasset" 288
"../../../../../../Unreal Projects/FantasyVillageProject/FantasyVillageDev/Content/Citizens/BehaviorTrees/LocationPoint.uasset" 289
"../../../../../../Unreal Projects/FantasyVillageProject/FantasyVillageDev/Content/Citizens/CitizenAIController.uasset" 290
"../../../../../../Unreal Projects/FantasyVillageProject/FantasyVillageDev/Content/Buildings/StatBonus.uasset" 291
"../../../../../../Unreal Projects/FantasyVillageProject/FantasyVillageDev/Content/Buildings/ResourceCollection.uasset" 292
"../../../../../../Unreal Projects/FantasyVillageProject/FantasyVillageDev/Content/PlayerCharacter/FantasyVillageInterface/CitizenUI/CitizenStats.uasset" 293
"../../../../../../Unreal Projects/FantasyVillageProject/FantasyVillageDev/Content/PlayerCharacter/FantasyVillageInterface/MessageToPlayer.uasset" 294
"../../../../../../Unreal Projects/FantasyVillageProject/FantasyVillageDev/Content/PlayerCharacter/FantasyVillageInterface/Textures/CloseWindowIcon.uasset" 295
"../../../../../../Unreal Projects/FantasyVillageProject/FantasyVillageDev/Content/PlayerCharacter/FantasyVillageInterface/CitizenUI/CitizenSelectionMenu.uasset" 296
"../../../../../../Unreal Projects/FantasyVillageProject/FantasyVillageDev/Content/PlayerCharacter/FantasyVillageInterface/Textures/ConfirmIcon.uasset" 297
"../../../../../../Unreal Projects/FantasyVillageProject/FantasyVillageDev/Content/PlayerCharacter/FantasyVillageInterface/BuildingUI/ResourceCollection/AssignWorker.uasset" 298
"../../../../../../Unreal Projects/FantasyVillageProject/FantasyVillageDev/Content/PlayerCharacter/FantasyVillageInterface/BuildingUI/ResourceCollection/AvaliableResource.uasset" 299
"../../../../../../Unreal Projects/FantasyVillageProject/FantasyVillageDev/Content/PlayerCharacter/FantasyVillageInterface/BuildingUI/ResourceCollection/Worker.uasset" 300
"../../../../../../Unreal Projects/FantasyVillageProject/FantasyVillageDev/Content/PlayerCharacter/FantasyVillageInterface/BuildingUI/ResourceCollection/WorkersList.uasset" 301
"../../../../../../Unreal Projects/FantasyVillageProject/FantasyVillageDev/Content/PlayerCharacter/FantasyVillageInterface/BuildingUI/ResourceCollection/ResourceCollectionBuildingMenu.uasset" 302
"../../../../../../Unreal Projects/FantasyVillageProject/FantasyVillageDev/Content/RawMaterials/ResouceAmount.uasset" 303
"../../../../../../Unreal Projects/FantasyVillageProject/FantasyVillageDev/Content/Buildings/ResourceCollectionBuildingTemplate.uasset" 304
"../../../../../../Unreal Projects/FantasyVillageProject/FantasyVillageDev/Content/PlayerCharacter/Build.uasset" 305
"../../../../../../Unreal Projects/FantasyVillageProject/FantasyVillageDev/Content/PlayerCharacter/FantasyVillageInterface/BuildingUI/BuildingTools/ResourceYieldPerHour.uasset" 306
"../../../../../../Unreal Projects/FantasyVillageProject/FantasyVillageDev/Content/PlayerCharacter/FantasyVillageInterface/BuildingUI/BuildingStats.uasset" 307
"../../../../../../Unreal Projects/FantasyVillageProject/FantasyVillageDev/Content/PlayerCharacter/FantasyVillageInterface/BuildingUI/Storage/StorageResource.uasset" 308
"../../../../../../Unreal Projects/FantasyVillageProject/FantasyVillageDev/Content/PlayerCharacter/FantasyVillageInterface/BuildingUI/Storage/StorageMenu.uasset" 309
"../../../../../../Unreal Projects/FantasyVillageProject/FantasyVillageDev/Content/Buildings/Storage.uasset" 310
"../../../../../../Unreal Projects/FantasyVillageProject/FantasyVillageDev/Content/PlayerCharacter/FantasyVillageInterface/BuildingUI/HouseMenu.uasset" 311
"../../../../../../Unreal Projects/FantasyVillageProject/FantasyVillageDev/Content/Buildings/House.uasset" 312
"../../../../../../Unreal Projects/FantasyVillageProject/FantasyVillageDev/Content/beffio/Medieval_Kingdom/Content/Textures/Buildings/Building_5/T_Building_5_AO.uasset" 313
"../../../../../../Unreal Projects/FantasyVillageProject/FantasyVillageDev/Content/beffio/Medieval_Kingdom/Content/Textures/Buildings/Building_5/T_Building_5_BC.uasset" 314
"../../../../../../Unreal Projects/FantasyVillageProject/FantasyVillageDev/Content/beffio/Medieval_Kingdom/Content/Textures/Buildings/Building_5/T_Building_5_E.uasset" 315
"../../../../../../Unreal Projects/FantasyVillageProject/FantasyVillageDev/Content/beffio/Medieval_Kingdom/Content/Textures/Buildings/Building_5/T_Building_5_MT.uasset" 316
"../../../../../../Unreal Projects/FantasyVillageProject/FantasyVillageDev/Content/beffio/Medieval_Kingdom/Content/Textures/Buildings/Building_5/T_Building_5_N.uasset" 317
"../../../../../../Unreal Projects/FantasyVillageProject/FantasyVillageDev/Content/beffio/Medieval_Kingdom/Content/Materials/Materials_Instances/Buildings/MI_Building_5.uasset" 318
"../../../../../../Unreal Projects/FantasyVillageProject/FantasyVillageDev/Content/beffio/Medieval_Kingdom/Content/Models/Buildings/Building_5/SM_Building_5.uasset" 319
"../../../../../../Unreal Projects/FantasyVillageProject/FantasyVillageDev/Content/CraftResourcesIcons/Textures/Tex_wood_08_b.uasset" 320
"../../../../../../Unreal Projects/FantasyVillageProject/FantasyVillageDev/Content/Buildings/LumberYard.uasset" 321
"../../../../../../Unreal Projects/FantasyVillageProject/FantasyVillageDev/Content/beffio/Medieval_Kingdom/Content/Textures/Buildings/Building_3/T_House_3_AO.uasset" 322
"../../../../../../Unreal Projects/FantasyVillageProject/FantasyVillageDev/Content/beffio/Medieval_Kingdom/Content/Textures/Buildings/Building_3/T_House_3_BC.uasset" 323
"../../../../../../Unreal Projects/FantasyVillageProject/FantasyVillageDev/Content/beffio/Medieval_Kingdom/Content/Textures/Buildings/Building_3/T_House_3_E.uasset" 324
"../../../../../../Unreal Projects/FantasyVillageProject/FantasyVillageDev/Content/beffio/Medieval_Kingdom/Content/Textures/Buildings/Building_3/T_House_3_MT.uasset" 325
"../../../../../../Unreal Projects/FantasyVillageProject/FantasyVillageDev/Content/beffio/Medieval_Kingdom/Content/Textures/Buildings/Building_3/T_House_3_N.uasset" 326
"../../../../../../Unreal Projects/FantasyVillageProject/FantasyVillageDev/Content/beffio/Medieval_Kingdom/Content/Materials/Materials_Instances/Buildings/MI_Building_3.uasset" 327
"../../../../../../Unreal Projects/FantasyVillageProject/FantasyVillageDev/Content/beffio/Medieval_Kingdom/Content/Models/Buildings/Building_3/SM_Building_3.uasset" 328
"../../../../../../Unreal Projects/FantasyVillageProject/FantasyVillageDev/Content/CraftResourcesIcons/Textures/Tex_ingots_06_b.uasset" 329
"../../../../../../Unreal Projects/FantasyVillageProject/FantasyVillageDev/Content/Buildings/Mine.uasset" 330
"../../../../../../Unreal Projects/FantasyVillageProject/FantasyVillageDev/Content/CraftResourcesIcons/Textures/Tex_stone_08_b.uasset" 331
"../../../../../../Unreal Projects/FantasyVillageProject/FantasyVillageDev/Content/CraftResourcesIcons/Textures/Tex_wood_12_b.uasset" 332
"../../../../../../Unreal Projects/FantasyVillageProject/FantasyVillageDev/Content/PlayerCharacter/FantasyVillageInterface/BuildingUI/BuildingTools/ResourceAmount.uasset" 333
"../../../../../../Unreal Projects/FantasyVillageProject/FantasyVillageDev/Content/PlayerCharacter/FantasyVillageInterface/BuildingUI/BuildingTools/Building.uasset" 334
"../../../../../../Unreal Projects/FantasyVillageProject/FantasyVillageDev/Content/CraftResourcesIcons/Textures/Tex_tools_08.uasset" 335
"../../../../../../Unreal Projects/FantasyVillageProject/FantasyVillageDev/Content/PlayerCharacter/FantasyVillageInterface/BuildingUI/BuildingTools/LockedBuilding.uasset" 336
"../../../../../../Unreal Projects/FantasyVillageProject/FantasyVillageDev/Content/PlayerCharacter/FantasyVillageInterface/BuildingUI/BuildingTools/BuildMenu.uasset" 337
"../../../../../../Unreal Projects/FantasyVillageProject/FantasyVillageDev/Content/PlayerCharacter/FantasyVillageInterface/Textures/ResetIcon.uasset" 338
"../../../../../../Unreal Projects/FantasyVillageProject/FantasyVillageDev/Content/PlayerCharacter/FantasyVillageInterface/Textures/Rotate90Icon.uasset" 339
"../../../../../../Unreal Projects/FantasyVillageProject/FantasyVillageDev/Content/PlayerCharacter/FantasyVillageInterface/Textures/RotateIcon.uasset" 340
"../../../../../../Unreal Projects/FantasyVillageProject/FantasyVillageDev/Content/PlayerCharacter/FantasyVillageInterface/BuildingUI/BuildingTools/BuildTools.uasset" 341
"../../../../../../Unreal Projects/FantasyVillageProject/FantasyVillageDev/Content/CheatsandTesting/CheatMenu.uasset" 342
"../../../../../../Unreal Projects/FantasyVillageProject/FantasyVillageDev/Content/CraftResourcesIcons/Textures/Tex_recipes_01_b.uasset" 343
"../../../../../../Unreal Projects/FantasyVillageProject/FantasyVillageDev/Content/CraftResourcesIcons/Textures/Tex_tools_02_b.uasset" 344
"../../../../../../Unreal Projects/FantasyVillageProject/FantasyVillageDev/Content/PlayerCharacter/FantasyVillageInterface/FantasyVillagePlayerUI.uasset" 345
"../../../../../../Unreal Projects/FantasyVillageProject/FantasyVillageDev/Content/PlayerCharacter/FantasyVillagePlayer.uasset" 346
"../../../../../../Unreal Projects/FantasyVillageProject/FantasyVillageDev/Content/Buildings/Material/GhostMaterial.uasset" 347
"../../../../../../Unreal Projects/FantasyVillageProject/FantasyVillageDev/Content/Buildings/Material/RedGhostMaterial.uasset" 348
"../../../../../../Unreal Projects/FantasyVillageProject/FantasyVillageDev/Content/Buildings/Material/DefaultLevel2.uasset" 349
"../../../../../../Unreal Projects/FantasyVillageProject/FantasyVillageDev/Content/Buildings/Material/DefaultLevel2Material.uasset" 350
"../../../../../../Unreal Projects/FantasyVillageProject/FantasyVillageDev/Content/Buildings/Mesh/DefaultLevel2Mesh.uasset" 351
"../../../../../../Unreal Projects/FantasyVillageProject/FantasyVillageDev/Content/Buildings/Material/DefaultLevel3.uasset" 352
"../../../../../../Unreal Projects/FantasyVillageProject/FantasyVillageDev/Content/Buildings/Material/DefaultLevel3Material1.uasset" 353
"../../../../../../Unreal Projects/FantasyVillageProject/FantasyVillageDev/Content/Buildings/Mesh/DefaultLevel3Mesh.uasset" 354
"../../../../../../Unreal Projects/FantasyVillageProject/FantasyVillageDev/Content/CraftResourcesIcons/Textures/Tex_bone_12_b.uasset" 355
"../../../../../../Unreal Projects/FantasyVillageProject/FantasyVillageDev/Content/PlayerCharacter/FantasyVillageInterface/BuildingUI/Demolish/ConfirmDemolish.uasset" 356
"../../../../../../Unreal Projects/FantasyVillageProject/FantasyVillageDev/Content/PlayerCharacter/FantasyVillageInterface/BuildingUI/Demolish/DemolishButton.uasset" 357
"../../../../../../Unreal Projects/FantasyVillageProject/FantasyVillageDev/Content/PlayerCharacter/FantasyVillageInterface/BuildingUI/BuildingTools/BuildingInProgress.uasset" 358
"../../../../../../Unreal Projects/FantasyVillageProject/FantasyVillageDev/Content/Buildings/BuildingTemplate.uasset" 359
"../../../../../../Unreal Projects/FantasyVillageProject/FantasyVillageDev/Content/GoodSky/Source/Data/Curve/Curve_GoodSky_Stars.uasset" 360
"../../../../../../Unreal Projects/FantasyVillageProject/FantasyVillageDev/Content/GoodSky/Source/Data/Curve/Curve_GoodSky_SunLight.uasset" 361
"../../../../../../Unreal Projects/FantasyVillageProject/FantasyVillageDev/Content/GoodSky/Source/Data/Curve/Curve_GoodSky_AllOverlayColor.uasset" 362
"../../../../../../Unreal Projects/FantasyVillageProject/FantasyVillageDev/Content/GoodSky/Source/Data/Curve/Curve_GoodSky_BaseCloudColor.uasset" 363
"../../../../../../Unreal Projects/FantasyVillageProject/FantasyVillageDev/Content/GoodSky/Source/Data/Curve/Curve_GoodSky_DomeColor.uasset" 364
"../../../../../../Unreal Projects/FantasyVillageProject/FantasyVillageDev/Content/GoodSky/Source/Data/Curve/Curve_GoodSky_horizon_Color.uasset" 365
"../../../../../../Unreal Projects/FantasyVillageProject/FantasyVillageDev/Content/GoodSky/Source/Data/Curve/Curve_GoodSky_SunDirection_Vector.uasset" 366
"../../../../../../Unreal Projects/FantasyVillageProject/FantasyVillageDev/Content/GoodSky/Source/Data/Curve/Curve_GoodSky_SunDirection_Vector1.uasset" 367
"../../../../../../Unreal Projects/FantasyVillageProject/FantasyVillageDev/Content/GoodSky/Source/Data/Structure/Structure_GoodSky.uasset" 368
"../../../../../../Unreal Projects/FantasyVillageProject/FantasyVillageDev/Content/GoodSky/Source/Data/DataTable/DataTable_GoodSky.uasset" 369
"../../../../../../Unreal Projects/FantasyVillageProject/FantasyVillageDev/Content/GoodSky/Source/ArrowTool/T_GoodSky_SkyRing.uasset" 370
"../../../../../../Unreal Projects/FantasyVillageProject/FantasyVillageDev/Content/GoodSky/Source/ArrowTool/M_GoodSky_SkyRing_.uasset" 371
"../../../../../../Unreal Projects/FantasyVillageProject/FantasyVillageDev/Content/GoodSky/Source/ArrowTool/M_GoodSky_Sun_Emissive.uasset" 372
"../../../Engine/Content/Functions/Engine_MaterialFunctions01/Gradient/LinearGradient.uasset" 373
"../../../../../../Unreal Projects/FantasyVillageProject/FantasyVillageDev/Content/GoodSky/Source/Materials/Material_Function/MF_GoodSky_SkyDomeAlpha.uasset" 374
"../../../../../../Unreal Projects/FantasyVillageProject/FantasyVillageDev/Content/GoodSky/Source/Textures/T_GoodSky_clouds_A.uasset" 375
"../../../../../../Unreal Projects/FantasyVillageProject/FantasyVillageDev/Content/GoodSky/Source/Textures/T_GoodSky_clouds_B.uasset" 376
"../../../../../../Unreal Projects/FantasyVillageProject/FantasyVillageDev/Content/GoodSky/Source/Textures/T_GoodSky_clouds_sphere.uasset" 377
"../../../../../../Unreal Projects/FantasyVillageProject/FantasyVillageDev/Content/GoodSky/Source/Materials/Material_Function/MF_GoodSky_Clouds_Setting.uasset" 378
"../../../../../../Unreal Projects/FantasyVillageProject/FantasyVillageDev/Content/GoodSky/Source/Materials/Material_Function/MF_GoodSky_Global_Setting.uasset" 379
"../../../../../../Unreal Projects/FantasyVillageProject/FantasyVillageDev/Content/GoodSky/Source/Materials/Material_Function/MF_GoodSky_Time.uasset" 380
"../../../../../../Unreal Projects/FantasyVillageProject/FantasyVillageDev/Content/GoodSky/Source/Materials/Material_Function/MF_GoodSky_Top_part_alpha.uasset" 381
"../../../../../../Unreal Projects/FantasyVillageProject/FantasyVillageDev/Content/GoodSky/Source/Textures/T_GoodSky_clouds_F.uasset" 382
"../../../../../../Unreal Projects/FantasyVillageProject/FantasyVillageDev/Content/GoodSky/Source/Materials/M_GoodSky_Base.uasset" 383
"../../../Engine/Content/Functions/Engine_MaterialFunctions01/Density/ExponentialDensity.uasset" 384
"../../../Engine/Content/Functions/Engine_MaterialFunctions01/Gradient/RadialGradientExponential.uasset" 385
"../../../Engine/Content/Functions/Engine_MaterialFunctions01/Texturing/ScaleUVsAroundPoint.uasset" 386
"../../../../../../Unreal Projects/FantasyVillageProject/FantasyVillageDev/Content/GoodSky/Source/Textures/T_GoodSky_Moon.uasset" 387
"../../../../../../Unreal Projects/FantasyVillageProject/FantasyVillageDev/Content/GoodSky/Source/Materials/Material_Function/MF_GoodSky_Moon_Setting.uasset" 388
"../../../../../../Unreal Projects/FantasyVillageProject/FantasyVillageDev/Content/GoodSky/Source/Materials/M_GoodSky_Moon.uasset" 389
"../../../Engine/Content/Functions/Engine_MaterialFunctions01/ImageAdjustment/DeriveHDRfromLDR.uasset" 390
"../../../Engine/Content/Functions/Engine_MaterialFunctions01/Texturing/ComputeMipLevel.uasset" 391
"../../../Engine/Content/Functions/Engine_MaterialFunctions01/Texturing/TextureCropping.uasset" 392
"../../../Engine/Content/Functions/Engine_MaterialFunctions02/Utility/BreakOutFloat3Components.uasset" 393
"../../../Engine/Content/Functions/Engine_MaterialFunctions02/ExampleContent/DebugNumberStrip.uasset" 394
"../../../Engine/Content/Functions/Engine_MaterialFunctions02/ExampleContent/Textures/DebugNumberPeriod.uasset" 395
"../../../Engine/Content/Functions/Engine_MaterialFunctions02/Utility/DebugScalarValues.uasset" 396
"../../../Engine/Content/Functions/Engine_MaterialFunctions02/Utility/DebugFloat3Values.uasset" 397
"../../../Engine/Content/Functions/Engine_MaterialFunctions02/Math/RGBtoHSV.uasset" 398
"../../../../../../Unreal Projects/FantasyVillageProject/FantasyVillageDev/Content/GoodSky/Source/Textures/T_GoodSky_noise_smooth.uasset" 399
"../../../../../../Unreal Projects/FantasyVillageProject/FantasyVillageDev/Content/GoodSky/Source/Materials/Material_Function/MF_GoodSky_LightningFlick.uasset" 400
"../../../../../../Unreal Projects/FantasyVillageProject/FantasyVillageDev/Content/GoodSky/Source/Textures/T_GoodSky_Lightning.uasset" 401
"../../../../../../Unreal Projects/FantasyVillageProject/FantasyVillageDev/Content/GoodSky/Source/Materials/M_GoodSky_Storm.uasset" 402
"../../../../../../Unreal Projects/FantasyVillageProject/FantasyVillageDev/Content/GoodSky/Source/Textures/T_GoodSky_Stars.uasset" 403
"../../../../../../Unreal Projects/FantasyVillageProject/FantasyVillageDev/Content/GoodSky/Source/Materials/M_GoodSky_Sun_Stars.uasset" 404
"../../../../../../Unreal Projects/FantasyVillageProject/FantasyVillageDev/Content/GoodSky/Source/Materials/M_GoodSky_Sun_Stars_Moon.uasset" 405
"../../../Engine/Content/BasicShapes/Plane.uasset" 406
"../../../Engine/Content/BasicShapes/Sphere.uasset" 407
"../../../../../../Unreal Projects/FantasyVillageProject/FantasyVillageDev/Content/GoodSky/Source/ArrowTool/SM_GoodSky_StarMesh.uasset" 408
"../../../../../../Unreal Projects/FantasyVillageProject/FantasyVillageDev/Content/GoodSky/Source/Data/Enum/Enum_GoodSky_Clouds_Coverage.uasset" 409
"../../../../../../Unreal Projects/FantasyVillageProject/FantasyVillageDev/Content/GoodSky/Source/Data/Enum/Enum_GoodSky_Effects.uasset" 410
"../../../../../../Unreal Projects/FantasyVillageProject/FantasyVillageDev/Content/GoodSky/Source/Data/Enum/Enum_GoodSky_MeshType.uasset" 411
"../../../../../../Unreal Projects/FantasyVillageProject/FantasyVillageDev/Content/GoodSky/Source/Data/Enum/Enum_GoodSky_Preset.uasset" 412
"../../../../../../Unreal Projects/FantasyVillageProject/FantasyVillageDev/Content/GoodSky/Source/Data/Enum/Enum_GoodSky_Style_Clouds.uasset" 413
"../../../../../../Unreal Projects/FantasyVillageProject/FantasyVillageDev/Content/GoodSky/Source/Mesh/SM_GoodSky_Hemisphere.uasset" 414
"../../../../../../Unreal Projects/FantasyVillageProject/FantasyVillageDev/Content/GoodSky/Source/Mesh/SM_GoodSky_Sphere.uasset" 415
"../../../../../../Unreal Projects/FantasyVillageProject/FantasyVillageDev/Content/GoodSky/Source/Textures/T_GoodSky_clouds_C.uasset" 416
"../../../../../../Unreal Projects/FantasyVillageProject/FantasyVillageDev/Content/GoodSky/Source/Textures/T_GoodSky_clouds_D.uasset" 417
"../../../../../../Unreal Projects/FantasyVillageProject/FantasyVillageDev/Content/GoodSky/Source/Textures/T_GoodSky_clouds_E.uasset" 418
"../../../../../../Unreal Projects/FantasyVillageProject/FantasyVillageDev/Content/GoodSky/Blueprint/BP_GoodSky.uasset" 419
"../../../../../../Unreal Projects/FantasyVillageProject/FantasyVillageDev/Content/FantasyVillageGameInstance.uasset" 420
"../../../../../../Unreal Projects/FantasyVillageProject/FantasyVillageDev/Content/CheatsandTesting/QuickMenu.uasset" 421
"../../../../../../Unreal Projects/FantasyVillageProject/FantasyVillageDev/Content/Levels/MainMenu.umap" 422
"../../../../../../Unreal Projects/FantasyVillageProject/FantasyVillageDev/Content/PlayerCharacter/FantasyVillagePlayerController.uasset" 423
"../../../../../../Unreal Projects/FantasyVillageProject/FantasyVillageDev/Content/TestGameMode.uasset" 424
"../../../../../../Unreal Projects/FantasyVillageProject/FantasyVillageDev/Content/Levels/Foliage/Rocks.uasset" 425
"../../../../../../Unreal Projects/FantasyVillageProject/FantasyVillageDev/Content/Levels/Foliage/Trees.uasset" 426
"../../../../../../Unreal Projects/FantasyVillageProject/FantasyVillageDev/Content/CartoonRtsFoliage/Materials/Physics/Dirt.uasset" 427
"../../../../../../Unreal Projects/FantasyVillageProject/FantasyVillageDev/Content/CartoonRtsFoliage/Textures/Landscape/Landscape_Layers/DIRT_LayerInfo.uasset" 428
"../../../../../../Unreal Projects/FantasyVillageProject/FantasyVillageDev/Content/CartoonRtsFoliage/Textures/Landscape/Landscape_Layers/Grass_Dirt_Flowers_LayerInfo.uasset" 429
"../../../../../../Unreal Projects/FantasyVillageProject/FantasyVillageDev/Content/CartoonRtsFoliage/Materials/Physics/Grass.uasset" 430
"../../../../../../Unreal Projects/FantasyVillageProject/FantasyVillageDev/Content/CartoonRtsFoliage/Textures/Landscape/Landscape_Layers/Grass_Simple_LayerInfo.uasset" 431
"../../../../../../Unreal Projects/FantasyVillageProject/FantasyVillageDev/Content/CartoonRtsFoliage/Textures/Landscape/Landscape_Layers/Simple_Grass_02_LayerInfo.uasset" 432
"../../../Engine/Content/EngineMaterials/WeightMapPlaceholderTexture.uasset" 433
"../../../../../../Unreal Projects/FantasyVillageProject/FantasyVillageDev/Content/CartoonRtsFoliage/Textures/GoldMines/T_Ground_GoldMines_D.uasset" 434
"../../../../../../Unreal Projects/FantasyVillageProject/FantasyVillageDev/Content/CartoonRtsFoliage/Textures/Landscape/T_04_Grass_Flowers_D.uasset" 435
"../../../../../../Unreal Projects/FantasyVillageProject/FantasyVillageDev/Content/CartoonRtsFoliage/Textures/Landscape/T_04_Grass_Simple2_D.uasset" 436
"../../../../../../Unreal Projects/FantasyVillageProject/FantasyVillageDev/Content/CartoonRtsFoliage/Textures/Landscape/T_04_Grass_Simple3_D.uasset" 437
"../../../../../../Unreal Projects/FantasyVillageProject/FantasyVillageDev/Content/CartoonRtsFoliage/Textures/Landscape/T_04_Grass_Simple_D.uasset" 438
"../../../../../../Unreal Projects/FantasyVillageProject/FantasyVillageDev/Content/CartoonRtsFoliage/Textures/Landscape/T_05_Grass_Dirt_D.uasset" 439
"../../../../../../Unreal Projects/FantasyVillageProject/FantasyVillageDev/Content/CartoonRtsFoliage/Textures/Landscape/T_07_Grass_Dirt_Rock_02_D.uasset" 440
"../../../../../../Unreal Projects/FantasyVillageProject/FantasyVillageDev/Content/CartoonRtsFoliage/Textures/Landscape/T_07_Grass_Dirt_Rock_D.uasset" 441
"../../../../../../Unreal Projects/FantasyVillageProject/FantasyVillageDev/Content/CartoonRtsFoliage/Textures/Landscape/T_08_Sand_D.uasset" 442
"../../../../../../Unreal Projects/FantasyVillageProject/FantasyVillageDev/Content/CartoonRtsFoliage/Textures/Landscape/T_12_Grass_SimpleMixed_CrackedRock_D.uasset" 443
"../../../../../../Unreal Projects/FantasyVillageProject/FantasyVillageDev/Content/CartoonRtsFoliage/Textures/Landscape/T_14_UnderSee_D.uasset" 444
"../../../../../../Unreal Projects/FantasyVillageProject/FantasyVillageDev/Content/CartoonRtsFoliage/Textures/Landscape/T_15_Grass_Rock_D.uasset" 445
"../../../../../../Unreal Projects/FantasyVillageProject/FantasyVillageDev/Content/CartoonRtsFoliage/Textures/Landscape/T_17_Cavern_D.uasset" 446
"../../../../../../Unreal Projects/FantasyVillageProject/FantasyVillageDev/Content/CartoonRtsFoliage/Textures/Landscape/T_Ground_01_Dirt_Rock_D.uasset" 447
"../../../../../../Unreal Projects/FantasyVillageProject/FantasyVillageDev/Content/CartoonRtsFoliage/Textures/Landscape/T_Ground_02_Sand_Rock_D.uasset" 448
"../../../../../../Unreal Projects/FantasyVillageProject/FantasyVillageDev/Content/CartoonRtsFoliage/Textures/StoneMines/T_Ground_StoneMine_D.uasset" 449
"../../../../../../Unreal Projects/FantasyVillageProject/FantasyVillageDev/Content/CartoonRtsFoliage/Materials/Landscape/LandscapeClear.uasset" 450
"../../../../../../Unreal Projects/FantasyVillageProject/FantasyVillageDev/Content/Levels/Prototype1.umap" 451
